{
  "count": 5,
  "next": "https://wger.de/api/v2/exercise/?format=json&limit=3&offset=3",
  "previous": null,
  "results": [
    {
      "id": 192,
      "name": "Barbell Bench Press",
      "description": "Flat bench press targeting chest.",
      "muscles": [4, 2, 5],
      "equipment": [1, 8],
      "category": {"id": 11, "name": "Chest"}
    },
    {
      "id": 289,
      "name": "Barbell Deadlift",
      "description": "Conventional deadlift from the floor.",
      "muscles": [10, 11, 8, 15],
      "equipment": [1],
      "category": {"id": 10, "name": "Back"}
    },
    {
      "id": 111,
      "name": "Barbell Squat",
      "description": "High-bar back squat.",
      "muscles": [10, 8, 14],
      "equipment": [1, 8],
      "category": {"id": 9, "name": "Legs"}
    }
  ]
}
